:10E000005542200135D0085A82450C0231400003A8
:10E010003F4000000F93082492420C0220012F83FE
:10E020009F4FFEE20002F8233F400C000F930724AD
:10E0300092420C0220011F83CF430002F923B01249
:10E0400026E1B012A8E03B400000B012B6E00B930E
:10E05000FC27B0120000F93F32D0F000FD3F304005
:10E06000B2E20B120A120912081207124A4F074EA7
:10E07000084C19410C000B430F3C5E434F4AB01251
:10E0800068E20F48B01250E14E434F4AB01268E2C6
:10E090000F49B01250E11B530B97EF233741384122
:10E0A00039413A413B413041E24300025E436F4314
:10E0B000B012F2E1304103123012384A3C406400A1
:10E0C0000D433E40E8035F420002B01262E021527D
:10E0D0003E40E8030F43B01262E103123012744075
:10E0E0003C40DC050D433E40E8035F420002B012B5
:10E0F00062E021523E40E8030F43B01262E130413A
:10E10000B2401A5A2001D2D300003041D242F91055
:10E110005700D242F8105600D24258005800F2D0B0
:10E12000200053003041B240805A2001B0120CE16F
:10E13000B01200E1F2F03F002E0032D230410D4229
:10E1400032C203431E4204021F420602024D304106
:10E150003F5306240F5F0F5F2F8303431F83FD236D
:10E1600030410B120A1209120812084E094FB01260
:10E170003EE10A4E0B4F023C32D01800B0123EE195
:10E180000C4E0D4F0C8A0D7B0D99F62B02200C982E
:10E19000F32B384139413A413B4130410F120E12C5
:10E1A0000D120C121E4204021F4206021D42020200
:10E1B0003D5020003D90E80304283D5018FC1E53BC
:10E1C0000F63824D0202824E0402824F06021E42FB
:10E1D00008021F420A021E530F63824E0802824F3A
:10E1E0000A02B1C0D00008003C413D413E413F41E0
:10E1F00000130B120A124F4F5A4FB4E25F4FC9E29D
:10E200004F932F244F4F0F5F1C4FE6E26D4C4B4A4C
:10E210007BE34DFBCC4D00001C4FDEE2CCFB00004D
:10E220001D4FF2E21C4FECE21F4FF8E24E93032029
:10E230006F4D4FFB143C6E930520CDFB00006E4FDD
:10E240004EDA063C6E920920CDFB00006E4F4EFB6D
:10E25000CF4E0000CCDA0000043C6F4D4FDACD4FBA
:10E2600000003A413B4130410B120A124F4F5B4FC5
:10E27000B4E25F4FC9E24F9319244F4F0F5F1A4F1B
:10E28000E6E26C4A4D4B7DE34CFDCA4C00001A4F50
:10E29000DEE2CAFD00001F4FF8E24E9303206E4FEE
:10E2A0004EFD023C6E4F4EDBCF4E00003A413B41EB
:04E2B00030410013E6
:10E2B400000001020408102001020408102040801C
:10E2C400000080400000000101010101010202027E
:10E2D40002020201010000020200000041004200AB
:10E2E4000000000026002E00000027002F00000080
:0AE2F40022002A000000210029008A
:10FFE0005EE05EE05EE05EE05EE05EE05EE05EE021
:10FFF0005EE05EE09CE15EE05EE05EE05EE000E030
:040000030000E00019
:00000001FF
